^C:\USERS\RAMI\DESKTOP\SFML\SFML_TEMPLATE\SFML_TEMPLATE\DRAW_CIRCLE.CPP|C:\USERS\RAMI\DESKTOP\SFML\SFML_TEMPLATE\SFML_TEMPLATE\MAIN.CPP
C:\USERS\RAMI\DESKTOP\SFML\SFML_TEMPLATE\SFML_TEMPLATE\RELEASE\VC141.PDB
C:\USERS\RAMI\DESKTOP\SFML\SFML_TEMPLATE\SFML_TEMPLATE\RELEASE\MAIN.OBJ
C:\USERS\RAMI\DESKTOP\SFML\SFML_TEMPLATE\SFML_TEMPLATE\RELEASE\DRAW_CIRCLE.OBJ
^C:\USERS\RAMI\DESKTOP\SFML\SFML_TEMPLATE\SFML_TEMPLATE\DRAW_CIRCLE.CPP
C:\USERS\RAMI\DESKTOP\SFML\SFML_TEMPLATE\SFML_TEMPLATE\RELEASE\VC141.PDB
C:\USERS\RAMI\DESKTOP\SFML\SFML_TEMPLATE\SFML_TEMPLATE\RELEASE\DRAW_CIRCLE.OBJ
^C:\USERS\RAMI\DESKTOP\SFML\SFML_TEMPLATE\SFML_TEMPLATE\MAIN.CPP
C:\USERS\RAMI\DESKTOP\SFML\SFML_TEMPLATE\SFML_TEMPLATE\RELEASE\VC141.PDB
C:\USERS\RAMI\DESKTOP\SFML\SFML_TEMPLATE\SFML_TEMPLATE\RELEASE\MAIN.OBJ
^C:\USERS\RAMI\DESKTOP\SFML\GAME 2\SFML_TEMPLATE\COLLECTABLES.CPP|C:\USERS\RAMI\DESKTOP\SFML\GAME 2\SFML_TEMPLATE\GAMEMODE.CPP|C:\USERS\RAMI\DESKTOP\SFML\GAME 2\SFML_TEMPLATE\MAIN.CPP|C:\USERS\RAMI\DESKTOP\SFML\GAME 2\SFML_TEMPLATE\PLAYER.CPP
C:\USERS\RAMI\DESKTOP\SFML\GAME 2\SFML_TEMPLATE\RELEASE\VC141.PDB
C:\USERS\RAMI\DESKTOP\SFML\GAME 2\SFML_TEMPLATE\RELEASE\MAIN.OBJ
C:\USERS\RAMI\DESKTOP\SFML\GAME 2\SFML_TEMPLATE\RELEASE\PLAYER.OBJ
C:\USERS\RAMI\DESKTOP\SFML\GAME 2\SFML_TEMPLATE\RELEASE\COLLECTABLES.OBJ
^C:\USERS\RAMI\DESKTOP\SFML\GAME 2\SFML_TEMPLATE\COLLECTABLES.CPP|C:\USERS\RAMI\DESKTOP\SFML\GAME 2\SFML_TEMPLATE\GAMEMODE.CPP
C:\USERS\RAMI\DESKTOP\SFML\GAME 2\SFML_TEMPLATE\RELEASE\VC141.PDB
C:\USERS\RAMI\DESKTOP\SFML\GAME 2\SFML_TEMPLATE\RELEASE\COLLECTABLES.OBJ
^C:\USERS\RAMI\DESKTOP\SFML\GAME 2\SFML_TEMPLATE\GAMEMODE.CPP|C:\USERS\RAMI\DESKTOP\SFML\GAME 2\SFML_TEMPLATE\MAIN.CPP
C:\USERS\RAMI\DESKTOP\SFML\GAME 2\SFML_TEMPLATE\RELEASE\VC141.PDB
C:\USERS\RAMI\DESKTOP\SFML\GAME 2\SFML_TEMPLATE\RELEASE\MAIN.OBJ
C:\USERS\RAMI\DESKTOP\SFML\GAME 2\SFML_TEMPLATE\RELEASE\GAMEMODE.OBJ
^C:\USERS\RAMI\DESKTOP\SFML\GAME 2\SFML_TEMPLATE\GAMEMODE.CPP|C:\USERS\RAMI\DESKTOP\SFML\GAME 2\SFML_TEMPLATE\MAIN.CPP|C:\USERS\RAMI\DESKTOP\SFML\GAME 2\SFML_TEMPLATE\PLAYER.CPP
C:\USERS\RAMI\DESKTOP\SFML\GAME 2\SFML_TEMPLATE\RELEASE\VC141.PDB
C:\USERS\RAMI\DESKTOP\SFML\GAME 2\SFML_TEMPLATE\RELEASE\MAIN.OBJ
C:\USERS\RAMI\DESKTOP\SFML\GAME 2\SFML_TEMPLATE\RELEASE\PLAYER.OBJ
C:\USERS\RAMI\DESKTOP\SFML\GAME 2\SFML_TEMPLATE\RELEASE\GAMEMODE.OBJ
^C:\USERS\RAMI\DESKTOP\SFML\GAME 2\SFML_TEMPLATE\COLLECTABLES.CPP|C:\USERS\RAMI\DESKTOP\SFML\GAME 2\SFML_TEMPLATE\ENEMY.CPP|C:\USERS\RAMI\DESKTOP\SFML\GAME 2\SFML_TEMPLATE\GAMEMODE.CPP|C:\USERS\RAMI\DESKTOP\SFML\GAME 2\SFML_TEMPLATE\MAIN.CPP|C:\USERS\RAMI\DESKTOP\SFML\GAME 2\SFML_TEMPLATE\PLAYER.CPP
C:\USERS\RAMI\DESKTOP\SFML\GAME 2\SFML_TEMPLATE\RELEASE\VC141.PDB
C:\USERS\RAMI\DESKTOP\SFML\GAME 2\SFML_TEMPLATE\RELEASE\MAIN.OBJ
C:\USERS\RAMI\DESKTOP\SFML\GAME 2\SFML_TEMPLATE\RELEASE\GAMEMODE.OBJ
C:\USERS\RAMI\DESKTOP\SFML\GAME 2\SFML_TEMPLATE\RELEASE\ENEMY.OBJ
C:\USERS\RAMI\DESKTOP\SFML\GAME 2\SFML_TEMPLATE\RELEASE\COLLECTABLES.OBJ
^C:\USERS\RAMI\DESKTOP\SFML\GAME 2\SFML_TEMPLATE\COLLECTABLES.CPP
C:\USERS\RAMI\DESKTOP\SFML\GAME 2\SFML_TEMPLATE\RELEASE\COLLECTABLES.OBJ
^C:\USERS\RAMI\DESKTOP\SFML\GAME 2\SFML_TEMPLATE\ENEMY.CPP|C:\USERS\RAMI\DESKTOP\SFML\GAME 2\SFML_TEMPLATE\GAMEMODE.CPP|C:\USERS\RAMI\DESKTOP\SFML\GAME 2\SFML_TEMPLATE\MAIN.CPP
C:\USERS\RAMI\DESKTOP\SFML\GAME 2\SFML_TEMPLATE\RELEASE\VC141.PDB
C:\USERS\RAMI\DESKTOP\SFML\GAME 2\SFML_TEMPLATE\RELEASE\MAIN.OBJ
C:\USERS\RAMI\DESKTOP\SFML\GAME 2\SFML_TEMPLATE\RELEASE\GAMEMODE.OBJ
C:\USERS\RAMI\DESKTOP\SFML\GAME 2\SFML_TEMPLATE\RELEASE\ENEMY.OBJ
^C:\USERS\RAMI\DESKTOP\SFML\GAME 2\SFML_TEMPLATE\ENEMY.CPP|C:\USERS\RAMI\DESKTOP\SFML\GAME 2\SFML_TEMPLATE\GAMEMODE.CPP|C:\USERS\RAMI\DESKTOP\SFML\GAME 2\SFML_TEMPLATE\MAIN.CPP|C:\USERS\RAMI\DESKTOP\SFML\GAME 2\SFML_TEMPLATE\PLAYER.CPP
C:\USERS\RAMI\DESKTOP\SFML\GAME 2\SFML_TEMPLATE\RELEASE\VC141.PDB
C:\USERS\RAMI\DESKTOP\SFML\GAME 2\SFML_TEMPLATE\RELEASE\MAIN.OBJ
C:\USERS\RAMI\DESKTOP\SFML\GAME 2\SFML_TEMPLATE\RELEASE\GAMEMODE.OBJ
C:\USERS\RAMI\DESKTOP\SFML\GAME 2\SFML_TEMPLATE\RELEASE\ENEMY.OBJ
^C:\USERS\RAMI\DESKTOP\SFML\GAME 2\SFML_TEMPLATE\ANIM_SPRITE.CPP|C:\USERS\RAMI\DESKTOP\SFML\GAME 2\SFML_TEMPLATE\ENEMY.CPP|C:\USERS\RAMI\DESKTOP\SFML\GAME 2\SFML_TEMPLATE\GAMEMODE.CPP|C:\USERS\RAMI\DESKTOP\SFML\GAME 2\SFML_TEMPLATE\MAIN.CPP|C:\USERS\RAMI\DESKTOP\SFML\GAME 2\SFML_TEMPLATE\PLAYER.CPP
C:\USERS\RAMI\DESKTOP\SFML\GAME 2\SFML_TEMPLATE\RELEASE\VC141.PDB
C:\USERS\RAMI\DESKTOP\SFML\GAME 2\SFML_TEMPLATE\RELEASE\PLAYER.OBJ
C:\USERS\RAMI\DESKTOP\SFML\GAME 2\SFML_TEMPLATE\RELEASE\MAIN.OBJ
C:\USERS\RAMI\DESKTOP\SFML\GAME 2\SFML_TEMPLATE\RELEASE\GAMEMODE.OBJ
C:\USERS\RAMI\DESKTOP\SFML\GAME 2\SFML_TEMPLATE\RELEASE\ENEMY.OBJ
^C:\USERS\RAMI\DESKTOP\SFML\GAME 2\SFML_TEMPLATE\ENEMY.CPP
C:\USERS\RAMI\DESKTOP\SFML\GAME 2\SFML_TEMPLATE\RELEASE\ENEMY.OBJ
^C:\USERS\RAMI\DESKTOP\SFML\GAME 2\SFML_TEMPLATE\GAMEMODE.CPP
C:\USERS\RAMI\DESKTOP\SFML\GAME 2\SFML_TEMPLATE\RELEASE\GAMEMODE.OBJ
^C:\USERS\RAMI\DESKTOP\SFML\GAME 2\SFML_TEMPLATE\MAIN.CPP
C:\USERS\RAMI\DESKTOP\SFML\GAME 2\SFML_TEMPLATE\RELEASE\MAIN.OBJ
^C:\USERS\RAMI\DESKTOP\SFML\GAME 2\SFML_TEMPLATE\PLAYER.CPP
C:\USERS\RAMI\DESKTOP\SFML\GAME 2\SFML_TEMPLATE\RELEASE\PLAYER.OBJ
